Refining Selection

DISTINCT



SELECT * FROM book_shop.books

SELECT database()

USE book_shop

INSERT INTO books
    (title, author_fname, author_lname, released_year, stock_quantity, pages)
    VALUES ('10% Happier', 'Dan', 'Harris', 2014, 29, 256), 
           ('fake_book', 'Freida', 'Harris', 2001, 287, 428),
           ('Lincoln In The Bardo', 'George', 'Saunders', 2017, 1000, 367);
          
SELECT title FROM book_shop.books

DESC book_shop.books

SELECT COUNT(DISTINCT author_lname) FROM book_shop.books

*******************************
SELECT (COUNT(author_lname) - COUNT(DISTINCT author_lname)) FROM book_shop.books
************************************


SELECT * FROM book_shop.books

SELECT COUNT(author_lname) FROM book_shop.books




SELECT * FROM book_shop.books

SELECT COUNT(author_lname) FROM book_shop.books

SELECT author_lname FROM book_shop.books

DESC book_shop.books


SELECT DISTINCT released_year FROM book_shop.books



*******************************************************
SELECT DISTINCT author_fname,author_lname FROM book_shop.books




SELECT DISTINCT CONCAT(author_fname, ' ', author_lname) AS 'fullName' FROM book_shop.books
**********************************************************


CODE: Using DISTINCT
Section 8, Lecture 124
SELECT author_lname FROM books;
 
SELECT DISTINCT author_lname FROM books;
 
SELECT author_fname, author_lname FROM books;
 
SELECT DISTINCT CONCAT(author_fname,' ', author_lname) FROM books;
 
SELECT DISTINCT author_fname, author_lname FROM books;


ORDER BY

SELECT author_lname FROM book_shop.books ORDER BY author_lname

mysql> select author_lname FROM books ORDER BY author_lname;
+----------------+
| author_lname   |
+----------------+
| Carver         |
| Carver         |
| Chabon         |
| DeLillo        |
| Eggers         |
| Eggers         |
| Eggers         |
| Foster Wallace |
| Foster Wallace |
| Gaiman         |
| Gaiman         |
| Gaiman         |
| Harris         |
| Harris         |
| Lahiri         |
| Lahiri         |
| Saunders       |
| Smith          |
| Steinbeck      |
+----------------+
19 rows in set (0.00 sec)


ALL ordered in Ascending order by alphabetic characters.


ORDERED in ALPHA-NUMERIC way
10% is above all

mysql> SELECT title FROM books ORDER BY title;
+-----------------------------------------------------+
| title                                               |
+-----------------------------------------------------+
| 10% Happier                                         |
| A Heartbreaking Work of Staggering Genius           |
| A Hologram for the King: A Novel                    |
| American Gods                                       |
| Cannery Row                                         |
| Consider the Lobster                                |
| Coraline                                            |
| fake_book                                           |
| Interpreter of Maladies                             |
| Just Kids                                           |
| Lincoln In The Bardo                                |
| Norse Mythology                                     |
| Oblivion: Stories                                   |
| The Amazing Adventures of Kavalier & Clay           |
| The Circle                                          |
| The Namesake                                        |
| What We Talk About When We Talk About Love: Stories |
| Where I'm Calling From: Selected Stories            |
| White Noise                                         |
+-----------------------------------------------------+
19 rows in set (0.00 sec)



mysql> SELECT title FROM books ORDER BY title DESC;
+-----------------------------------------------------+
| title                                               |
+-----------------------------------------------------+
| White Noise                                         |
| Where I'm Calling From: Selected Stories            |
| What We Talk About When We Talk About Love: Stories |
| The Namesake                                        |
| The Circle                                          |
| The Amazing Adventures of Kavalier & Clay           |
| Oblivion: Stories                                   |
| Norse Mythology                                     |
| Lincoln In The Bardo                                |
| Just Kids                                           |
| Interpreter of Maladies                             |
| fake_book                                           |
| Coraline                                            |
| Consider the Lobster                                |
| Cannery Row                                         |
| American Gods                                       |
| A Hologram for the King: A Novel                    |
| A Heartbreaking Work of Staggering Genius           |
| 10% Happier                                         |
+-----------------------------------------------------+
19 rows in set (0.00 sec)

*************************
ASC / DESC
************************


mysql> SELECT DISTINCT released_year FROM books ORDER BY released_year DESC;
+---------------+
| released_year |
+---------------+
|          2017 |
|          2016 |
|          2014 |
|          2013 |
|          2012 |
|          2010 |
|          2005 |
|          2004 |
|          2003 |
|          2001 |
|          2000 |
|          1996 |
|          1989 |
|          1985 |
|          1981 |
|          1945 |
+---------------+
16 rows in set (0.00 sec)

mysql> SELECT DISTINCT released_year FROM books ORDER BY released_year;
+---------------+
| released_year |
+---------------+
|          1945 |
|          1981 |
|          1985 |
|          1989 |
|          1996 |
|          2000 |
|          2001 |
|          2003 |
|          2004 |
|          2005 |
|          2010 |
|          2012 |
|          2013 |
|          2014 |
|          2016 |
|          2017 |
+---------------+
16 rows in set (0.00 sec)



mysql> SELECT title, released_year, pages FROM books ORDER BY released_year;
+-----------------------------------------------------+---------------+-------+
| title                                               | released_year | pages |
+-----------------------------------------------------+---------------+-------+
| Cannery Row                                         |          1945 |   181 |
| What We Talk About When We Talk About Love: Stories |          1981 |   176 |
| White Noise                                         |          1985 |   320 |
| Where I'm Calling From: Selected Stories            |          1989 |   526 |
| Interpreter of Maladies                             |          1996 |   198 |
| The Amazing Adventures of Kavalier & Clay           |          2000 |   634 |
| fake_book                                           |          2001 |   428 |
| American Gods                                       |          2001 |   465 |
| A Heartbreaking Work of Staggering Genius           |          2001 |   437 |
| Coraline                                            |          2003 |   208 |
| The Namesake                                        |          2003 |   291 |
| Oblivion: Stories                                   |          2004 |   329 |
| Consider the Lobster                                |          2005 |   343 |
| Just Kids                                           |          2010 |   304 |
| A Hologram for the King: A Novel                    |          2012 |   352 |
| The Circle                                          |          2013 |   504 |
| 10% Happier                                         |          2014 |   256 |
| Norse Mythology                                     |          2016 |   304 |
| Lincoln In The Bardo                                |          2017 |   367 |
+-----------------------------------------------------+---------------+-------+
19 rows in set (0.00 sec)


mysql> SELECT title, released_year, pages FROM books ORDER BY pages;
+-----------------------------------------------------+---------------+-------+
| title                                               | released_year | pages |
+-----------------------------------------------------+---------------+-------+
| What We Talk About When We Talk About Love: Stories |          1981 |   176 |
| Cannery Row                                         |          1945 |   181 |
| Interpreter of Maladies                             |          1996 |   198 |
| Coraline                                            |          2003 |   208 |
| 10% Happier                                         |          2014 |   256 |
| The Namesake                                        |          2003 |   291 |
| Norse Mythology                                     |          2016 |   304 |
| Just Kids                                           |          2010 |   304 |
| White Noise                                         |          1985 |   320 |
| Oblivion: Stories                                   |          2004 |   329 |
| Consider the Lobster                                |          2005 |   343 |
| A Hologram for the King: A Novel                    |          2012 |   352 |
| Lincoln In The Bardo                                |          2017 |   367 |
| fake_book                                           |          2001 |   428 |
| A Heartbreaking Work of Staggering Genius           |          2001 |   437 |
| American Gods                                       |          2001 |   465 |
| The Circle                                          |          2013 |   504 |
| Where I'm Calling From: Selected Stories            |          1989 |   526 |
| The Amazing Adventures of Kavalier & Clay           |          2000 |   634 |
+-----------------------------------------------------+---------------+-------+
19 rows in set (0.00 sec)


mysql> SELECT title, pages FROM books ORDER BY released_year;
+-----------------------------------------------------+-------+
| title                                               | pages |
+-----------------------------------------------------+-------+
| Cannery Row                                         |   181 |
| What We Talk About When We Talk About Love: Stories |   176 |
| White Noise                                         |   320 |
| Where I'm Calling From: Selected Stories            |   526 |
| Interpreter of Maladies                             |   198 |
| The Amazing Adventures of Kavalier & Clay           |   634 |
| fake_book                                           |   428 |
| American Gods                                       |   465 |
| A Heartbreaking Work of Staggering Genius           |   437 |
| Coraline                                            |   208 |
| The Namesake                                        |   291 |
| Oblivion: Stories                                   |   329 |
| Consider the Lobster                                |   343 |
| Just Kids                                           |   304 |
| A Hologram for the King: A Novel                    |   352 |
| The Circle                                          |   504 |
| 10% Happier                                         |   256 |
| Norse Mythology                                     |   304 |
| Lincoln In The Bardo                                |   367 |
+-----------------------------------------------------+-------+
19 rows in set (0.00 sec)

******************************************************************************
mysql> SELECT title, author_fname, author_lname FROM books ORDER BY 2;
******************************************************************************

+-----------------------------------------------------+--------------+----------------+
| title                                               | author_fname | author_lname   |
+-----------------------------------------------------+--------------+----------------+
| 10% Happier                                         | Dan          | Harris         |
| A Hologram for the King: A Novel                    | Dave         | Eggers         |
| The Circle                                          | Dave         | Eggers         |
| A Heartbreaking Work of Staggering Genius           | Dave         | Eggers         |
| Consider the Lobster                                | David        | Foster Wallace |
| Oblivion: Stories                                   | David        | Foster Wallace |
| White Noise                                         | Don          | DeLillo        |
| fake_book                                           | Freida       | Harris         |
| Lincoln In The Bardo                                | George       | Saunders       |
| Interpreter of Maladies                             | Jhumpa       | Lahiri         |
| The Namesake                                        | Jhumpa       | Lahiri         |
| Cannery Row                                         | John         | Steinbeck      |
| The Amazing Adventures of Kavalier & Clay           | Michael      | Chabon         |
| Coraline                                            | Neil         | Gaiman         |
| American Gods                                       | Neil         | Gaiman         |
| Norse Mythology                                     | Neil         | Gaiman         |
| Just Kids                                           | Patti        | Smith          |
| Where I'm Calling From: Selected Stories            | Raymond      | Carver         |
| What We Talk About When We Talk About Love: Stories | Raymond      | Carver         |
+-----------------------------------------------------+--------------+----------------+
19 rows in set (0.00 sec)


mysql> SELECT title, author_fname, author_lname FROM books ORDER BY 1;
+-----------------------------------------------------+--------------+----------------+
| title                                               | author_fname | author_lname   |
+-----------------------------------------------------+--------------+----------------+
| 10% Happier                                         | Dan          | Harris         |
| A Heartbreaking Work of Staggering Genius           | Dave         | Eggers         |
| A Hologram for the King: A Novel                    | Dave         | Eggers         |
| American Gods                                       | Neil         | Gaiman         |
| Cannery Row                                         | John         | Steinbeck      |
| Consider the Lobster                                | David        | Foster Wallace |
| Coraline                                            | Neil         | Gaiman         |
| fake_book                                           | Freida       | Harris         |
| Interpreter of Maladies                             | Jhumpa       | Lahiri         |
| Just Kids                                           | Patti        | Smith          |
| Lincoln In The Bardo                                | George       | Saunders       |
| Norse Mythology                                     | Neil         | Gaiman         |
| Oblivion: Stories                                   | David        | Foster Wallace |
| The Amazing Adventures of Kavalier & Clay           | Michael      | Chabon         |
| The Circle                                          | Dave         | Eggers         |
| The Namesake                                        | Jhumpa       | Lahiri         |
| What We Talk About When We Talk About Love: Stories | Raymond      | Carver         |
| Where I'm Calling From: Selected Stories            | Raymond      | Carver         |
| White Noise                                         | Don          | DeLillo        |
+-----------------------------------------------------+--------------+----------------+
19 rows in set (0.00 sec)


mysql> SELECT title, author_fname, author_lname FROM books ORDER BY 1 DESC;
+-----------------------------------------------------+--------------+----------------+
| title                                               | author_fname | author_lname   |
+-----------------------------------------------------+--------------+----------------+
| White Noise                                         | Don          | DeLillo        |
| Where I'm Calling From: Selected Stories            | Raymond      | Carver         |
| What We Talk About When We Talk About Love: Stories | Raymond      | Carver         |
| The Namesake                                        | Jhumpa       | Lahiri         |
| The Circle                                          | Dave         | Eggers         |
| The Amazing Adventures of Kavalier & Clay           | Michael      | Chabon         |
| Oblivion: Stories                                   | David        | Foster Wallace |
| Norse Mythology                                     | Neil         | Gaiman         |
| Lincoln In The Bardo                                | George       | Saunders       |
| Just Kids                                           | Patti        | Smith          |
| Interpreter of Maladies                             | Jhumpa       | Lahiri         |
| fake_book                                           | Freida       | Harris         |
| Coraline                                            | Neil         | Gaiman         |
| Consider the Lobster                                | David        | Foster Wallace |
| Cannery Row                                         | John         | Steinbeck      |
| American Gods                                       | Neil         | Gaiman         |
| A Hologram for the King: A Novel                    | Dave         | Eggers         |
| A Heartbreaking Work of Staggering Genius           | Dave         | Eggers         |
| 10% Happier                                         | Dan          | Harris         |
+-----------------------------------------------------+--------------+----------------+
19 rows in set (0.00 sec)

*******************************************************************
mysql> SELECT author_fname, author_lname FROM books ORDER BY 1,2;
*******************************************************************
+--------------+----------------+
| author_fname | author_lname   |
+--------------+----------------+
| Dan          | Harris         |
| Dave         | Eggers         |
| Dave         | Eggers         |
| Dave         | Eggers         |
| David        | Foster Wallace |
| David        | Foster Wallace |
| Don          | DeLillo        |
| Freida       | Harris         |
| George       | Saunders       |
| Jhumpa       | Lahiri         |
| Jhumpa       | Lahiri         |
| John         | Steinbeck      |
| Michael      | Chabon         |
| Neil         | Gaiman         |
| Neil         | Gaiman         |
| Neil         | Gaiman         |
| Patti        | Smith          |
| Raymond      | Carver         |
| Raymond      | Carver         |
+--------------+----------------+
19 rows in set (0.00 sec)


CODE: Sorting Data with ORDER BY
Section 8, Lecture 126
SELECT author_lname FROM books;
 
SELECT author_lname FROM books ORDER BY author_lname;
 
SELECT title FROM books;
 
SELECT title FROM books ORDER BY title;
SELECT author_lname FROM books ORDER BY author_lname DESC;
 
SELECT released_year FROM books;
 
SELECT released_year FROM books ORDER BY released_year;
 
SELECT released_year FROM books ORDER BY released_year DESC;
 
SELECT released_year FROM books ORDER BY released_year ASC;
 
SELECT title, released_year, pages FROM books ORDER BY released_year;
 
SELECT title, pages FROM books ORDER BY released_year;
 
SELECT title, author_fname, author_lname 
FROM books ORDER BY 2;
 
SELECT title, author_fname, author_lname 
FROM books ORDER BY 3;
 
SELECT title, author_fname, author_lname 
FROM books ORDER BY 1;
 
SELECT title, author_fname, author_lname 
FROM books ORDER BY 1 DESC;
 
SELECT author_lname, title
FROM books ORDER BY 2;
 
SELECT author_fname, author_lname FROM books 
ORDER BY author_lname, author_fname;


LIMIT

**************************************************************************************
mysql> SELECT title, released_year FROM books ORDER BY released_year DESC LIMIT 5;
***************************************************************************************
+----------------------------------+---------------+
| title                            | released_year |
+----------------------------------+---------------+
| Lincoln In The Bardo             |          2017 |
| Norse Mythology                  |          2016 |
| 10% Happier                      |          2014 |
| The Circle                       |          2013 |
| A Hologram for the King: A Novel |          2012 |
+----------------------------------+---------------+
5 rows in set (0.00 sec)

OR

*******************************************************************************************
mysql> SELECT title, released_year FROM books ORDER BY released_year DESC LIMIT 0,5;
*******************************************************************************************
+----------------------------------+---------------+
| title                            | released_year |
+----------------------------------+---------------+
| Lincoln In The Bardo             |          2017 |
| Norse Mythology                  |          2016 |
| 10% Happier                      |          2014 |
| The Circle                       |          2013 |
| A Hologram for the King: A Novel |          2012 |
+----------------------------------+---------------+
5 rows in set (0.00 sec)

mysql> SELECT title, released_year FROM books ORDER BY released_year DESC LIMIT 1,5;
+----------------------------------+---------------+
| title                            | released_year |
+----------------------------------+---------------+
| Norse Mythology                  |          2016 |
| 10% Happier                      |          2014 |
| The Circle                       |          2013 |
| A Hologram for the King: A Novel |          2012 |
| Just Kids                        |          2010 |
+----------------------------------+---------------+
5 rows in set (0.00 sec)

mysql> SELECT title, released_year FROM books ORDER BY released_year DESC LIMIT 2,5;
+----------------------------------+---------------+
| title                            | released_year |
+----------------------------------+---------------+
| 10% Happier                      |          2014 |
| The Circle                       |          2013 |
| A Hologram for the King: A Novel |          2012 |
| Just Kids                        |          2010 |
| Consider the Lobster             |          2005 |
+----------------------------------+---------------+
5 rows in set (0.00 sec)

mysql> SELECT title, released_year FROM books ORDER BY released_year DESC LIMIT 3,5;
+----------------------------------+---------------+
| title                            | released_year |
+----------------------------------+---------------+
| The Circle                       |          2013 |
| A Hologram for the King: A Novel |          2012 |
| Just Kids                        |          2010 |
| Consider the Lobster             |          2005 |
| Oblivion: Stories                |          2004 |
+----------------------------------+---------------+
5 rows in set (0.00 sec)

mysql> SELECT title, released_year FROM books ORDER BY released_year DESC LIMIT 4,5;
+----------------------------------+---------------+
| title                            | released_year |
+----------------------------------+---------------+
| A Hologram for the King: A Novel |          2012 |
| Just Kids                        |          2010 |
| Consider the Lobster             |          2005 |
| Oblivion: Stories                |          2004 |
| The Namesake                     |          2003 |
+----------------------------------+---------------+
5 rows in set (0.00 sec)

mysql> SELECT title, released_year FROM books ORDER BY released_year DESC LIMIT 5,5;
+----------------------+---------------+
| title                | released_year |
+----------------------+---------------+
| Just Kids            |          2010 |
| Consider the Lobster |          2005 |
| Oblivion: Stories    |          2004 |
| The Namesake         |          2003 |
| Coraline             |          2003 |
+----------------------+---------------+
5 rows in set (0.00 sec)



*********************************************************************************

mysql> SELECT title, released_year FROM books ORDER BY released_year;
+-----------------------------------------------------+---------------+
| title                                               | released_year |
+-----------------------------------------------------+---------------+
| Cannery Row                                         |          1945 |
| What We Talk About When We Talk About Love: Stories |          1981 |
| White Noise                                         |          1985 |
| Where I'm Calling From: Selected Stories            |          1989 |
| Interpreter of Maladies                             |          1996 |
| The Amazing Adventures of Kavalier & Clay           |          2000 |
| fake_book                                           |          2001 |
| American Gods                                       |          2001 |
| A Heartbreaking Work of Staggering Genius           |          2001 |
| Coraline                                            |          2003 |
| The Namesake                                        |          2003 |
| Oblivion: Stories                                   |          2004 |
| Consider the Lobster                                |          2005 |
| Just Kids                                           |          2010 |
| A Hologram for the King: A Novel                    |          2012 |
| The Circle                                          |          2013 |
| 10% Happier                                         |          2014 |
| Norse Mythology                                     |          2016 |
| Lincoln In The Bardo                                |          2017 |
+-----------------------------------------------------+---------------+
19 rows in set (0.00 sec)

mysql> SELECT title, released_year FROM books ORDER BY released_year LIMIT 2,1;
+-------------+---------------+
| title       | released_year |
+-------------+---------------+
| White Noise |          1985 |
+-------------+---------------+
1 row in set (0.00 sec)

mysql> SELECT title, released_year FROM books ORDER BY released_year LIMIT 1,1;
+-----------------------------------------------------+---------------+
| title                                               | released_year |
+-----------------------------------------------------+---------------+
| What We Talk About When We Talk About Love: Stories |          1981 |
+-----------------------------------------------------+---------------+
1 row in set (0.00 sec)


************************************************************************************




CODE: Using LIMIT
Section 8, Lecture 128
SELECT title FROM books LIMIT 3;
 
SELECT title FROM books LIMIT 1;
 
SELECT title FROM books LIMIT 10;
 
SELECT * FROM books LIMIT 1;
 
SELECT title, released_year FROM books 
ORDER BY released_year DESC LIMIT 5;
 
SELECT title, released_year FROM books 
ORDER BY released_year DESC LIMIT 1;
 
SELECT title, released_year FROM books 
ORDER BY released_year DESC LIMIT 14;
 
SELECT title, released_year FROM books 
ORDER BY released_year DESC LIMIT 0,5;
 
SELECT title, released_year FROM books 
ORDER BY released_year DESC LIMIT 0,3;
 
SELECT title, released_year FROM books 
ORDER BY released_year DESC LIMIT 1,3;
 
SELECT title, released_year FROM books 
ORDER BY released_year DESC LIMIT 10,1;
 
SELECT * FROM tbl LIMIT 95,18446744073709551615;
 
SELECT title FROM books LIMIT 5;
 
SELECT title FROM books LIMIT 5, 123219476457;
 
SELECT title FROM books LIMIT 5, 50;



LIKE:-  BETTER Searching

WHERE author_fname like '%da%';


mysql> SELECT author_fname FROM books WHERE author_fname LIKE '%da%';
+--------------+
| author_fname |
+--------------+
| Dave         |
| Dave         |
| Dave         |
| David        |
| David        |
| Dan          |
| Freida       |
+--------------+
7 rows in set (0.00 sec)


I want names that start with 'da' ;


mysql> SELECT author_fname FROM books WHERE author_fname LIKE 'da%';
+--------------+
| author_fname |
+--------------+
| Dave         |
| Dave         |
| Dave         |
| David        |
| David        |
| Dan          |
+--------------+
6 rows in set (0.00 sec)


mysql> SELECT title FROM books WHERE title LIKE 'the';
Empty set (0.00 sec)

mysql> SELECT title FROM books WHERE title LIKE '%the';
Empty set (0.00 sec)

mysql> SELECT title FROM books WHERE title LIKE 'the%';
+-------------------------------------------+
| title                                     |
+-------------------------------------------+
| The Namesake                              |
| The Circle                                |
| The Amazing Adventures of Kavalier & Clay |
+-------------------------------------------+
3 rows in set (0.00 sec)

mysql> SELECT title FROM books WHERE title LIKE '%the%';
+-------------------------------------------+
| title                                     |
+-------------------------------------------+
| The Namesake                              |
| A Hologram for the King: A Novel          |
| The Circle                                |
| The Amazing Adventures of Kavalier & Clay |
| Consider the Lobster                      |
| Lincoln In The Bardo                      |
+-------------------------------------------+
6 rows in set (0.00 sec)


CODE: Better Searches with LIKE
Section 8, Lecture 130
SELECT title, author_fname FROM books WHERE author_fname LIKE '%da%';
 
SELECT title, author_fname FROM books WHERE author_fname LIKE 'da%';
 
SELECT title FROM books WHERE  title LIKE 'the';
 
SELECT title FROM books WHERE  title LIKE '%the';
 
SELECT title FROM books WHERE title LIKE '%the%';



LIKE

WHERE stock_quantity LIKE '____';
Yes, that is 4 underscores....
Underscore is a wildcard to specify any character but exactly one.
So the above query says, i want to find where the stock quantity is 4 characters long..


mysql> SELECT title, stock_quantity FROM books;
+-----------------------------------------------------+----------------+
| title                                               | stock_quantity |
+-----------------------------------------------------+----------------+
| The Namesake                                        |             32 |
| Norse Mythology                                     |             43 |
| American Gods                                       |             12 |
| Interpreter of Maladies                             |             97 |
| A Hologram for the King: A Novel                    |            154 |
| The Circle                                          |             26 |
| The Amazing Adventures of Kavalier & Clay           |             68 |
| Just Kids                                           |             55 |
| A Heartbreaking Work of Staggering Genius           |            104 |
| Coraline                                            |            100 |
| What We Talk About When We Talk About Love: Stories |             23 |
| Where I'm Calling From: Selected Stories            |             12 |
| White Noise                                         |             49 |
| Cannery Row                                         |             95 |
| Oblivion: Stories                                   |            172 |
| Consider the Lobster                                |             92 |
| 10% Happier                                         |             29 |
| fake_book                                           |            287 |
| Lincoln In The Bardo                                |           1000 |
+-----------------------------------------------------+----------------+
19 rows in set (0.00 sec)

mysql> SELECT title, stock_quantity FROM books WHERE stock_quantity LIKE '____';
+----------------------+----------------+
| title                | stock_quantity |
+----------------------+----------------+
| Lincoln In The Bardo |           1000 |
+----------------------+----------------+
1 row in set (0.00 sec)



ON THE OTHER HAND % says it could be nothing or 1000 characters
mysql> SELECT title, stock_quantity FROM books WHERE stock_quantity LIKE '%';
+-----------------------------------------------------+----------------+
| title                                               | stock_quantity |
+-----------------------------------------------------+----------------+
| The Namesake                                        |             32 |
| Norse Mythology                                     |             43 |
| American Gods                                       |             12 |
| Interpreter of Maladies                             |             97 |
| A Hologram for the King: A Novel                    |            154 |
| The Circle                                          |             26 |
| The Amazing Adventures of Kavalier & Clay           |             68 |
| Just Kids                                           |             55 |
| A Heartbreaking Work of Staggering Genius           |            104 |
| Coraline                                            |            100 |
| What We Talk About When We Talk About Love: Stories |             23 |
| Where I'm Calling From: Selected Stories            |             12 |
| White Noise                                         |             49 |
| Cannery Row                                         |             95 |
| Oblivion: Stories                                   |            172 |
| Consider the Lobster                                |             92 |
| 10% Happier                                         |             29 |
| fake_book                                           |            287 |
| Lincoln In The Bardo                                |           1000 |
+-----------------------------------------------------+----------------+
19 rows in set (0.00 sec)

mysql> SELECT title, stock_quantity FROM books WHERE stock_quantity LIKE '%%%%%';
+-----------------------------------------------------+----------------+
| title                                               | stock_quantity |
+-----------------------------------------------------+----------------+
| The Namesake                                        |             32 |
| Norse Mythology                                     |             43 |
| American Gods                                       |             12 |
| Interpreter of Maladies                             |             97 |
| A Hologram for the King: A Novel                    |            154 |
| The Circle                                          |             26 |
| The Amazing Adventures of Kavalier & Clay           |             68 |
| Just Kids                                           |             55 |
| A Heartbreaking Work of Staggering Genius           |            104 |
| Coraline                                            |            100 |
| What We Talk About When We Talk About Love: Stories |             23 |
| Where I'm Calling From: Selected Stories            |             12 |
| White Noise                                         |             49 |
| Cannery Row                                         |             95 |
| Oblivion: Stories                                   |            172 |
| Consider the Lobster                                |             92 |
| 10% Happier                                         |             29 |
| fake_book                                           |            287 |
| Lincoln In The Bardo                                |           1000 |
+-----------------------------------------------------+----------------+
19 rows in set (0.00 sec)

**************************************************************************
What if we want to search for a book with '%'' or '_' sign in it.

mysql> SELECT title, stock_quantity FROM books WHERE title LIKE '%\%%';
+-------------+----------------+
| title       | stock_quantity |
+-------------+----------------+
| 10% Happier |             29 |
+-------------+----------------+
1 row in set (0.00 sec)



mysql> SELECT title, stock_quantity FROM books WHERE title LIKE '%\_%';
+-----------+----------------+
| title     | stock_quantity |
+-----------+----------------+
| fake_book |            287 |
+-----------+----------------+
1 row in set (0.00 sec)
**************************************************************************


CODE: LIKE Part 2: More Wildcards
Section 8, Lecture 132
SELECT title, stock_quantity FROM books;
 
SELECT title, stock_quantity FROM books WHERE stock_quantity LIKE '____';
 
SELECT title, stock_quantity FROM books WHERE stock_quantity LIKE '__';
 
(235)234-0987 LIKE '(___)___-____'
 
SELECT title FROM books;
 
SELECT title FROM books WHERE title LIKE '%\%%'
 
SELECT title FROM books WHERE title LIKE '%\_%'


mysql> SELECT title FROM books WHERE title LIKE '%stories%';
+-----------------------------------------------------+
| title                                               |
+-----------------------------------------------------+
| What We Talk About When We Talk About Love: Stories |
| Where I'm Calling From: Selected Stories            |
| Oblivion: Stories                                   |
+-----------------------------------------------------+
3 rows in set (0.00 sec)


mysql> SELECT title,pages from books ORDER BY pages DESC LIMIT 1,1;
+------------------------------------------+-------+
| title                                    | pages |
+------------------------------------------+-------+
| Where I'm Calling From: Selected Stories |   526 |
+------------------------------------------+-------+
1 row in set (0.00 sec)

mysql> SELECT title,pages from books ORDER BY pages DESC LIMIT 1;
+-------------------------------------------+-------+
| title                                     | pages |
+-------------------------------------------+-------+
| The Amazing Adventures of Kavalier & Clay |   634 |
+-------------------------------------------+-------+
1 row in set (0.00 sec)

mysql> SELECT title,pages from books ORDER BY pages DESC LIMIT 0,1;
+-------------------------------------------+-------+
| title                                     | pages |
+-------------------------------------------+-------+
| The Amazing Adventures of Kavalier & Clay |   634 |
+-------------------------------------------+-------+
1 row in set (0.00 sec)


mysql> SELECT CONCAT(title, '-', released_year) AS 'summary' FROM books ORDER BY released_year DESC LIMIT 3;
+---------------------------+
| summary                   |
+---------------------------+
| Lincoln In The Bardo-2017 |
| Norse Mythology-2016      |
| 10% Happier-2014          |
+---------------------------+
3 rows in set (0.00 sec)


mysql> SELECT CONCAT_WS('_', title, released_year) AS 'summary' FROM books ORDER BY released_year DESC LIMIT 3;
+---------------------------+
| summary                   |
+---------------------------+
| Lincoln In The Bardo_2017 |
| Norse Mythology_2016      |
| 10% Happier_2014          |
+---------------------------+
3 rows in set (0.00 sec)

mysql> SELECT CONCAT_WS('-', title, released_year) AS 'summary' FROM books ORDER BY released_year DESC LIMIT 3;
+---------------------------+
| summary                   |
+---------------------------+
| Lincoln In The Bardo-2017 |
| Norse Mythology-2016      |
| 10% Happier-2014          |
+---------------------------+
3 rows in set (0.00 sec)


mysql> SELECT author_lname FROM books WHERE author_lname like '% %';
+----------------+
| author_lname   |
+----------------+
| Foster Wallace |
| Foster Wallace |
+----------------+
2 rows in set (0.00 sec)


mysql> SELECT title, released_year, stock_quantity FROM books ORDER BY stock_quantity LIMIT 3;
+-----------------------------------------------------+---------------+----------------+
| title                                               | released_year | stock_quantity |
+-----------------------------------------------------+---------------+----------------+
| Where I'm Calling From: Selected Stories            |          1989 |             12 |
| American Gods                                       |          2001 |             12 |
| What We Talk About When We Talk About Love: Stories |          1981 |             23 |
+-----------------------------------------------------+---------------+----------------+
3 rows in set (0.00 sec)


mysql> SELECT title, author_lname FROM books ORDER BY author_lname, title;
+-----------------------------------------------------+----------------+
| title                                               | author_lname   |
+-----------------------------------------------------+----------------+
| What We Talk About When We Talk About Love: Stories | Carver         |
| Where I'm Calling From: Selected Stories            | Carver         |
| The Amazing Adventures of Kavalier & Clay           | Chabon         |
| White Noise                                         | DeLillo        |
| A Heartbreaking Work of Staggering Genius           | Eggers         |
| A Hologram for the King: A Novel                    | Eggers         |
| The Circle                                          | Eggers         |
| Consider the Lobster                                | Foster Wallace |
| Oblivion: Stories                                   | Foster Wallace |
| American Gods                                       | Gaiman         |
| Coraline                                            | Gaiman         |
| Norse Mythology                                     | Gaiman         |
| 10% Happier                                         | Harris         |
| fake_book                                           | Harris         |
| Interpreter of Maladies                             | Lahiri         |
| The Namesake                                        | Lahiri         |
| Lincoln In The Bardo                                | Saunders       |
| Just Kids                                           | Smith          |
| Cannery Row                                         | Steinbeck      |
+-----------------------------------------------------+----------------+
19 rows in set (0.00 sec)



mysql> SELECT UPPER(CONCAT_WS(' ','My Favorite author is',author_fname, author_lname)) AS 'yell' FROM books ORDER BY author_lname;
+--------------------------------------------+
| yell                                       |
+--------------------------------------------+
| MY FAVORITE AUTHOR IS RAYMOND CARVER       |
| MY FAVORITE AUTHOR IS RAYMOND CARVER       |
| MY FAVORITE AUTHOR IS MICHAEL CHABON       |
| MY FAVORITE AUTHOR IS DON DELILLO          |
| MY FAVORITE AUTHOR IS DAVE EGGERS          |
| MY FAVORITE AUTHOR IS DAVE EGGERS          |
| MY FAVORITE AUTHOR IS DAVE EGGERS          |
| MY FAVORITE AUTHOR IS DAVID FOSTER WALLACE |
| MY FAVORITE AUTHOR IS DAVID FOSTER WALLACE |
| MY FAVORITE AUTHOR IS NEIL GAIMAN          |
| MY FAVORITE AUTHOR IS NEIL GAIMAN          |
| MY FAVORITE AUTHOR IS NEIL GAIMAN          |
| MY FAVORITE AUTHOR IS DAN HARRIS           |
| MY FAVORITE AUTHOR IS FREIDA HARRIS        |
| MY FAVORITE AUTHOR IS JHUMPA LAHIRI        |
| MY FAVORITE AUTHOR IS JHUMPA LAHIRI        |
| MY FAVORITE AUTHOR IS GEORGE SAUNDERS      |
| MY FAVORITE AUTHOR IS PATTI SMITH          |
| MY FAVORITE AUTHOR IS JOHN STEINBECK       |
+--------------------------------------------+
19 rows in set (0.00 sec)

mysql> SELECT UPPER(CONCAT_WS(' ','My Favorite author is',author_fname, author_lname, '!')) AS 'yell' FROM books ORDER BY author_lname;
+----------------------------------------------+
| yell                                         |
+----------------------------------------------+
| MY FAVORITE AUTHOR IS RAYMOND CARVER !       |
| MY FAVORITE AUTHOR IS RAYMOND CARVER !       |
| MY FAVORITE AUTHOR IS MICHAEL CHABON !       |
| MY FAVORITE AUTHOR IS DON DELILLO !          |
| MY FAVORITE AUTHOR IS DAVE EGGERS !          |
| MY FAVORITE AUTHOR IS DAVE EGGERS !          |
| MY FAVORITE AUTHOR IS DAVE EGGERS !          |
| MY FAVORITE AUTHOR IS DAVID FOSTER WALLACE ! |
| MY FAVORITE AUTHOR IS DAVID FOSTER WALLACE ! |
| MY FAVORITE AUTHOR IS NEIL GAIMAN !          |
| MY FAVORITE AUTHOR IS NEIL GAIMAN !          |
| MY FAVORITE AUTHOR IS NEIL GAIMAN !          |
| MY FAVORITE AUTHOR IS DAN HARRIS !           |
| MY FAVORITE AUTHOR IS FREIDA HARRIS !        |
| MY FAVORITE AUTHOR IS JHUMPA LAHIRI !        |
| MY FAVORITE AUTHOR IS JHUMPA LAHIRI !        |
| MY FAVORITE AUTHOR IS GEORGE SAUNDERS !      |
| MY FAVORITE AUTHOR IS PATTI SMITH !          |
| MY FAVORITE AUTHOR IS JOHN STEINBECK !       |
+----------------------------------------------+
19 rows in set (0.00 sec)






CODE: Refining Selections Exercises Solution
Section 8, Lecture 135
SELECT title FROM books WHERE title LIKE '%stories%';
 
SELECT title, pages FROM books ORDER BY pages DESC LIMIT 1;
 
SELECT 
    CONCAT(title, ' - ', released_year) AS summary 
FROM books ORDER BY released_year DESC LIMIT 3;
 
SELECT title, author_lname FROM books WHERE author_lname LIKE '% %';
 
SELECT title, released_year, stock_quantity 
FROM books ORDER BY stock_quantity LIMIT 3;
 
SELECT title, author_lname 
FROM books ORDER BY author_lname, title;
 
SELECT title, author_lname 
FROM books ORDER BY 2,1;
 
SELECT
    CONCAT(
        'MY FAVORITE AUTHOR IS ',
        UPPER(author_fname),
        ' ',
        UPPER(author_lname),
        '!'
    ) AS yell
FROM books ORDER BY author_lname;

































